FunctionalEnrichment S4 class accessors — hits • riches
…
## Access the m/z feature KEGG compound matches
hits(enrichment_results)
#> # A tibble: 332 × 8
#>    ID     MF     INCHI                      SMILES name  feature adduct compound
#>    <chr>  <chr>  <chr>                      <chr>  <chr> <chr>   <chr>  <chr>   
#>  1 C01546 C5H4O3 InChI=1S/C5H4O3/c6-5(7)4-… "c1cc… n111… n111.0… [M-H]… 2-Furoa…
#>  2 C01546 C5H4O3 InChI=1S/C5H4O3/c6-5(7)4-… "c1cc… n112… n112.0… [M-H]… 2-Furoa…
#>  3 C00122 C4H4O4 InChI=1S/C4H4O4/c5-3(6)1-… "C(=C… n115… n115.0… [M-H]… Fumarate
#>  4 C01384 C4H4O4 InChI=1S/C4H4O4/c5-3(6)1-… "C(=C… n115… n115.0… [M-H]… Maleic …
#>  5 C00122 C4H4O4 InChI=1S/C4H4O4/c5-3(6)1-… "C(=C… n116… n116.0… [M-H]… Fumarate
#>  6 C01384 C4H4O4 InChI=1S/C4H4O4/c5-3(6)1-… "C(=C… n116… n116.0… [M-H]… Maleic …
#>  7 C00122 C4H4O4 InChI=1S/C4H4O4/c5-3(6)1-… "C(=C… n117… n117.0… [M-H]… Fumarate
#>  8 C01384 C4H4O4 InChI=1S/C4H4O4/c5-3(6)1-… "C(=C… n117… n117.0… [M-H]… Maleic …
#>  9 C00042 C4H6O4 InChI=1S/C4H6O4/c5-3(6)1-… "C(CC… n117… n117.0… [M-H]… Succina…
#> 10 C02170 C4H6O4 InChI=1S/C4H6O4/c1-2(3(5)… "CC(C… n117… n117.0… [M-H]… Methylm…
#> # ℹ 322 more rows

## Access the explanatory features used for functional enrichment
explanatoryFeatures(enrichment_results)
#> # A tibble: 153 × 5
#> # Groups:   response, comparison [1]
#>    response comparison          feature                        metric      value
#>    <chr>    <chr>               <chr>                          <chr>       <dbl>
#>  1 class    ABR1~ABR5~ABR6~BD21 n267.05255 C12H12O7  [M-H]1-   false_p… 5.13e-17
#>  2 class    ABR1~ABR5~ABR6~BD21 p130.04956                     false_p… 1.92e-13
#>  3 class    ABR1~ABR5~ABR6~BD21 n176.93581 CH3O6P  [M+Cl]1-    false_p… 2.65e-12
#>  4 class    ABR1~ABR5~ABR6~BD21 n295.10519                     false_p… 2.65e-12
#>  5 class    ABR1~ABR5~ABR6~BD21 n371.10074                     false_p… 2.65e-12
#>  6 class    ABR1~ABR5~ABR6~BD21 n447.09634 C18H24O11S  [M-H]1- false_p… 3.43e-11
#>  7 class    ABR1~ABR5~ABR6~BD21 n385.11682                     false_p… 4.15e-10
#>  8 class    ABR1~ABR5~ABR6~BD21 n439.08383 C26H16O7  [M-H]1-   false_p… 4.15e-10
#>  9 class    ABR1~ABR5~ABR6~BD21 n88.98757 C2H2O4  [M-H]1-      false_p… 4.15e-10
#> 10 class    ABR1~ABR5~ABR6~BD21 n101.02399                     false_p… 4.66e- 9
#> # ℹ 143 more rows
…
